{
	"$schema" : "https://aka.ms/winget-packages.schema.2.0.json",
	"Sources" :
	[
		{
			"Packages" :
			[
				{ "PackageIdentifier" : "Microsoft.PowerShell" },
				{ "PackageIdentifier" : "Microsoft.DotNet.Framework.DeveloperPack_4" },
				{ "PackageIdentifier" : "Microsoft.VCRedist.2015+.x64" },
				{ "PackageIdentifier" : "Microsoft.VCRedist.2015+.x86" },
				{ "PackageIdentifier" : "Microsoft.VCRedist.2013.x64" },
				{ "PackageIdentifier" : "Microsoft.VCRedist.2013.x86" },
				{ "PackageIdentifier" : "Microsoft.VCRedist.2012.x64" },
				{ "PackageIdentifier" : "Microsoft.VCRedist.2012.x86" },
				{ "PackageIdentifier" : "Microsoft.VCRedist.2010.x64" },
				{ "PackageIdentifier" : "Microsoft.VCRedist.2010.x86" },
				{ "PackageIdentifier" : "Microsoft.VCRedist.2008.x64" },
				{ "PackageIdentifier" : "Microsoft.VCRedist.2008.x86" },
				{ "PackageIdentifier" : "Microsoft.VCRedist.2005.x64" },
				{ "PackageIdentifier" : "Microsoft.VCRedist.2005.x86" },
				{ "PackageIdentifier" : "Git.Git" }
			],
			"SourceDetails" :
			{
				"Argument" : "https://cdn.winget.microsoft.com/cache",
				"Identifier" : "Microsoft.Winget.Source_8wekyb3d8bbwe",
				"Name" : "winget",
				"Type" : "Microsoft.PreIndexed.Package"
			}
		}
	]
}